{
  "_format": "hh-sol-artifact-1",
  "contractName": "IInflator",
  "sourceName": "contracts/interfaces/IInflator.sol",
  "abi": [
    {
      "inputs": [
        {
          "internalType": "bytes",
          "name": "source",
          "type": "bytes"
        },
        {
          "internalType": "uint256",
          "name": "destlen",
          "type": "uint256"
        }
      ],
      "name": "puff",
      "outputs": [
        {
          "internalType": "enum Inflate.ErrorCode",
          "name": "",
          "type": "uint8"
        },
        {
          "internalType": "bytes",
          "name": "",
          "type": "bytes"
        }
      ],
      "stateMutability": "pure",
      "type": "function"
    }
  ],
  "bytecode": "0x",
  "deployedBytecode": "0x",
  "linkReferences": {},
  "deployedLinkReferences": {}
}
