{
  "_format": "hh-sol-artifact-1",
  "contractName": "CountersUpgradeable",
  "sourceName": "@openzeppelin/contracts-upgradeable/utils/CountersUpgradeable.sol",
  "abi": [],
  "bytecode": "0x60566037600b82828239805160001a607314602a57634e487b7160e01b600052600060045260246000fd5b30600052607381538281f3fe73000000000000000000000000000000000000000030146080604052600080fdfea264697066735822122008dfa050cd085937e441793bd7af5e0f53284cd6e9a38155c827e933b01dc29e64736f6c634300080c0033",
  "deployedBytecode": "0x73000000000000000000000000000000000000000030146080604052600080fdfea264697066735822122008dfa050cd085937e441793bd7af5e0f53284cd6e9a38155c827e933b01dc29e64736f6c634300080c0033",
  "linkReferences": {},
  "deployedLinkReferences": {}
}
