{
  "_format": "hh-sol-artifact-1",
  "contractName": "Base64",
  "sourceName": "base64-sol/base64.sol",
  "abi": [],
  "bytecode": "0x60566037600b82828239805160001a607314602a57634e487b7160e01b600052600060045260246000fd5b30600052607381538281f3fe73000000000000000000000000000000000000000030146080604052600080fdfea26469706673582212207e51772307b54bb6af81aa2453b0db54a460e0c7412d0d76ab6050b1e5a200c964736f6c634300080c0033",
  "deployedBytecode": "0x73000000000000000000000000000000000000000030146080604052600080fdfea26469706673582212207e51772307b54bb6af81aa2453b0db54a460e0c7412d0d76ab6050b1e5a200c964736f6c634300080c0033",
  "linkReferences": {},
  "deployedLinkReferences": {}
}
