{
  "manifestVersion": "3.2",
  "proxies": [],
  "impls": {
    "0680094a605e94504eeae75431bc78dc9cee385c14ad7143368efcebe01a7ce2": {
      "address": "0x3f98125fCdbd19F552d3798288292e8ED66f6C84",
      "txHash": "0xa4090a69a3f63816135398395d43b17b2666eb65206ee6f95625bd3584d43d76",
      "layout": {
        "solcVersion": "0.8.12",
        "storage": [
          {
            "label": "_initialized",
            "offset": 0,
            "slot": "0",
            "type": "t_uint8",
            "contract": "Initializable",
            "src": "@openzeppelin/contracts-upgradeable/proxy/utils/Initializable.sol:62",
            "retypedFrom": "bool"
          },
          {
            "label": "_initializing",
            "offset": 1,
            "slot": "0",
            "type": "t_bool",
            "contract": "Initializable",
            "src": "@openzeppelin/contracts-upgradeable/proxy/utils/Initializable.sol:67"
          },
          {
            "label": "__gap",
            "offset": 0,
            "slot": "1",
            "type": "t_array(t_uint256)50_storage",
            "contract": "ContextUpgradeable",
            "src": "@openzeppelin/contracts-upgradeable/utils/ContextUpgradeable.sol:36"
          },
          {
            "label": "__gap",
            "offset": 0,
            "slot": "51",
            "type": "t_array(t_uint256)50_storage",
            "contract": "ERC165Upgradeable",
            "src": "@openzeppelin/contracts-upgradeable/utils/introspection/ERC165Upgradeable.sol:41"
          },
          {
            "label": "_name",
            "offset": 0,
            "slot": "101",
            "type": "t_string_storage",
            "contract": "ERC721Upgradeable",
            "src": "@openzeppelin/contracts-upgradeable/token/ERC721/ERC721Upgradeable.sol:25"
          },
          {
            "label": "_symbol",
            "offset": 0,
            "slot": "102",
            "type": "t_string_storage",
            "contract": "ERC721Upgradeable",
            "src": "@openzeppelin/contracts-upgradeable/token/ERC721/ERC721Upgradeable.sol:28"
          },
          {
            "label": "_owners",
            "offset": 0,
            "slot": "103",
            "type": "t_mapping(t_uint256,t_address)",
            "contract": "ERC721Upgradeable",
            "src": "@openzeppelin/contracts-upgradeable/token/ERC721/ERC721Upgradeable.sol:31"
          },
          {
            "label": "_balances",
            "offset": 0,
            "slot": "104",
            "type": "t_mapping(t_address,t_uint256)",
            "contract": "ERC721Upgradeable",
            "src": "@openzeppelin/contracts-upgradeable/token/ERC721/ERC721Upgradeable.sol:34"
          },
          {
            "label": "_tokenApprovals",
            "offset": 0,
            "slot": "105",
            "type": "t_mapping(t_uint256,t_address)",
            "contract": "ERC721Upgradeable",
            "src": "@openzeppelin/contracts-upgradeable/token/ERC721/ERC721Upgradeable.sol:37"
          },
          {
            "label": "_operatorApprovals",
            "offset": 0,
            "slot": "106",
            "type": "t_mapping(t_address,t_mapping(t_address,t_bool))",
            "contract": "ERC721Upgradeable",
            "src": "@openzeppelin/contracts-upgradeable/token/ERC721/ERC721Upgradeable.sol:40"
          },
          {
            "label": "__gap",
            "offset": 0,
            "slot": "107",
            "type": "t_array(t_uint256)44_storage",
            "contract": "ERC721Upgradeable",
            "src": "@openzeppelin/contracts-upgradeable/token/ERC721/ERC721Upgradeable.sol:514"
          },
          {
            "label": "_paused",
            "offset": 0,
            "slot": "151",
            "type": "t_bool",
            "contract": "PausableUpgradeable",
            "src": "@openzeppelin/contracts-upgradeable/security/PausableUpgradeable.sol:29"
          },
          {
            "label": "__gap",
            "offset": 0,
            "slot": "152",
            "type": "t_array(t_uint256)49_storage",
            "contract": "PausableUpgradeable",
            "src": "@openzeppelin/contracts-upgradeable/security/PausableUpgradeable.sol:116"
          },
          {
            "label": "__gap",
            "offset": 0,
            "slot": "201",
            "type": "t_array(t_uint256)50_storage",
            "contract": "ERC721PausableUpgradeable",
            "src": "@openzeppelin/contracts-upgradeable/token/ERC721/extensions/ERC721PausableUpgradeable.sol:47"
          },
          {
            "label": "_status",
            "offset": 0,
            "slot": "251",
            "type": "t_uint256",
            "contract": "ReentrancyGuardUpgradeable",
            "src": "@openzeppelin/contracts-upgradeable/security/ReentrancyGuardUpgradeable.sol:38"
          },
          {
            "label": "__gap",
            "offset": 0,
            "slot": "252",
            "type": "t_array(t_uint256)49_storage",
            "contract": "ReentrancyGuardUpgradeable",
            "src": "@openzeppelin/contracts-upgradeable/security/ReentrancyGuardUpgradeable.sol:80"
          },
          {
            "label": "_owner",
            "offset": 0,
            "slot": "301",
            "type": "t_address",
            "contract": "OwnableUpgradeable",
            "src": "@openzeppelin/contracts-upgradeable/access/OwnableUpgradeable.sol:22"
          },
          {
            "label": "__gap",
            "offset": 0,
            "slot": "302",
            "type": "t_array(t_uint256)49_storage",
            "contract": "OwnableUpgradeable",
            "src": "@openzeppelin/contracts-upgradeable/access/OwnableUpgradeable.sol:94"
          },
          {
            "label": "_admin",
            "offset": 0,
            "slot": "351",
            "type": "t_address",
            "contract": "GenPlayingCards",
            "src": "contracts/genplayingcards.sol:25"
          },
          {
            "label": "_totalMints",
            "offset": 0,
            "slot": "352",
            "type": "t_uint256",
            "contract": "GenPlayingCards",
            "src": "contracts/genplayingcards.sol:26"
          },
          {
            "label": "_parameterControlAddr",
            "offset": 0,
            "slot": "353",
            "type": "t_address",
            "contract": "GenPlayingCards",
            "src": "contracts/genplayingcards.sol:27"
          },
          {
            "label": "_nounDescriptorAddr",
            "offset": 0,
            "slot": "354",
            "type": "t_address",
            "contract": "GenPlayingCards",
            "src": "contracts/genplayingcards.sol:28"
          },
          {
            "label": "_cardProperties",
            "offset": 0,
            "slot": "355",
            "type": "t_mapping(t_string_memory_ptr,t_struct(_cardProperty)5532_storage)",
            "contract": "GenPlayingCards",
            "src": "contracts/genplayingcards.sol:42"
          },
          {
            "label": "_cardNames",
            "offset": 0,
            "slot": "356",
            "type": "t_array(t_string_storage)dyn_storage",
            "contract": "GenPlayingCards",
            "src": "contracts/genplayingcards.sol:43"
          },
          {
            "label": "_cardTitles",
            "offset": 0,
            "slot": "357",
            "type": "t_mapping(t_string_memory_ptr,t_struct(_cardTitle)5541_storage)",
            "contract": "GenPlayingCards",
            "src": "contracts/genplayingcards.sol:44"
          },
          {
            "label": "_nounImages",
            "offset": 0,
            "slot": "358",
            "type": "t_array(t_string_storage)dyn_storage",
            "contract": "GenPlayingCards",
            "src": "contracts/genplayingcards.sol:45"
          },
          {
            "label": "_params",
            "offset": 0,
            "slot": "359",
            "type": "t_mapping(t_string_memory_ptr,t_string_storage)",
            "contract": "GenPlayingCards",
            "src": "contracts/genplayingcards.sol:46"
          },
          {
            "label": "_propertyNames",
            "offset": 0,
            "slot": "360",
            "type": "t_array(t_string_storage)4_storage",
            "contract": "GenPlayingCards",
            "src": "contracts/genplayingcards.sol:47"
          }
        ],
        "types": {
          "t_address": {
            "label": "address",
            "numberOfBytes": "20"
          },
          "t_array(t_string_storage)4_storage": {
            "label": "string[4]",
            "numberOfBytes": "128"
          },
          "t_array(t_string_storage)dyn_storage": {
            "label": "string[]",
            "numberOfBytes": "32"
          },
          "t_array(t_uint256)44_storage": {
            "label": "uint256[44]",
            "numberOfBytes": "1408"
          },
          "t_array(t_uint256)49_storage": {
            "label": "uint256[49]",
            "numberOfBytes": "1568"
          },
          "t_array(t_uint256)50_storage": {
            "label": "uint256[50]",
            "numberOfBytes": "1600"
          },
          "t_bool": {
            "label": "bool",
            "numberOfBytes": "1"
          },
          "t_mapping(t_address,t_bool)": {
            "label": "mapping(address => bool)",
            "numberOfBytes": "32"
          },
          "t_mapping(t_address,t_mapping(t_address,t_bool))": {
            "label": "mapping(address => mapping(address => bool))",
            "numberOfBytes": "32"
          },
          "t_mapping(t_address,t_uint256)": {
            "label": "mapping(address => uint256)",
            "numberOfBytes": "32"
          },
          "t_mapping(t_string_memory_ptr,t_string_storage)": {
            "label": "mapping(string => string)",
            "numberOfBytes": "32"
          },
          "t_mapping(t_string_memory_ptr,t_struct(_cardProperty)5532_storage)": {
            "label": "mapping(string => struct GenPlayingCards._cardProperty)",
            "numberOfBytes": "32"
          },
          "t_mapping(t_string_memory_ptr,t_struct(_cardTitle)5541_storage)": {
            "label": "mapping(string => struct GenPlayingCards._cardTitle)",
            "numberOfBytes": "32"
          },
          "t_mapping(t_uint256,t_address)": {
            "label": "mapping(uint256 => address)",
            "numberOfBytes": "32"
          },
          "t_string_memory_ptr": {
            "label": "string",
            "numberOfBytes": "32"
          },
          "t_string_storage": {
            "label": "string",
            "numberOfBytes": "32"
          },
          "t_struct(_cardProperty)5532_storage": {
            "label": "struct GenPlayingCards._cardProperty",
            "members": [
              {
                "label": "icon",
                "type": "t_string_storage",
                "offset": 0,
                "slot": "0"
              },
              {
                "label": "subIcon",
                "type": "t_string_storage",
                "offset": 0,
                "slot": "1"
              },
              {
                "label": "color",
                "type": "t_string_storage",
                "offset": 0,
                "slot": "2"
              },
              {
                "label": "nounGlasses",
                "type": "t_uint256",
                "offset": 0,
                "slot": "3"
              }
            ],
            "numberOfBytes": "128"
          },
          "t_struct(_cardTitle)5541_storage": {
            "label": "struct GenPlayingCards._cardTitle",
            "members": [
              {
                "label": "name",
                "type": "t_string_storage",
                "offset": 0,
                "slot": "0"
              },
              {
                "label": "x",
                "type": "t_string_storage",
                "offset": 0,
                "slot": "1"
              },
              {
                "label": "y",
                "type": "t_string_storage",
                "offset": 0,
                "slot": "2"
              },
              {
                "label": "nounHead",
                "type": "t_uint256",
                "offset": 0,
                "slot": "3"
              }
            ],
            "numberOfBytes": "128"
          },
          "t_uint256": {
            "label": "uint256",
            "numberOfBytes": "32"
          },
          "t_uint8": {
            "label": "uint8",
            "numberOfBytes": "1"
          },
          "t_mapping(t_string_memory_ptr,t_struct$__cardProperty)5532_storage)": {
            "label": "mapping(string => struct GenPlayingCards._cardProperty)"
          },
          "t_struct$__cardProperty)5532_storage": {
            "label": "struct GenPlayingCards._cardProperty",
            "members": [
              {
                "label": "icon",
                "type": "t_string_storage"
              },
              {
                "label": "subIcon",
                "type": "t_string_storage"
              },
              {
                "label": "color",
                "type": "t_string_storage"
              },
              {
                "label": "nounGlasses",
                "type": "t_uint256"
              }
            ]
          },
          "t_mapping(t_string_memory_ptr,t_struct$__cardTitle)5541_storage)": {
            "label": "mapping(string => struct GenPlayingCards._cardTitle)"
          },
          "t_struct$__cardTitle)5541_storage": {
            "label": "struct GenPlayingCards._cardTitle",
            "members": [
              {
                "label": "name",
                "type": "t_string_storage"
              },
              {
                "label": "x",
                "type": "t_string_storage"
              },
              {
                "label": "y",
                "type": "t_string_storage"
              },
              {
                "label": "nounHead",
                "type": "t_uint256"
              }
            ]
          }
        }
      }
    }
  }
}
